Field Grazing Urchins
…
grazing_change_shoots <- grazing_data_raw |>
  mutate(date = as.Date(date, format = "%d%B%Y")) |>
  group_by(plot) |>
  arrange(date) |>
  summarise(
    treatment       = first(treatment),
    change_zostera  = last(z_shoot_density) - first(z_shoot_density),
    change_halodule = last(h_shoot_density) - first(h_shoot_density),
    .groups = "drop"
  )

grazing_change_shoots

# A tibble: 32 × 4
    plot treatment change_zostera change_halodule
   <dbl>     <dbl>          <dbl>           <dbl>
 1     1         1              3              29
 2     2         2             -2              14
 3     3         0             -2              -2
 4     4         2             -3              18
 5     5         2              0              -6
 6     6         4             -2             -20
 7     7         0              0              75
 8     8         2              0              -9
 9     9         4              0               6
10    10         4              0             -32
# ℹ 22 more rows
…
grazing_change_shoots |>
  mutate(total_change = change_zostera + change_halodule) |>
  arrange(treatment, total_change)

# A tibble: 32 × 5
    plot treatment change_zostera change_halodule total_change
   <dbl>     <dbl>          <dbl>           <dbl>        <dbl>
 1     3         0             -2              -2           -4
 2    13         0             15              16           31
 3    20         0              7              44           51
 4    16         0              4              49           53
 5    18         0              9              49           58
 6     7         0              0              75           75
 7    25         0              1             121          122
 8    22         0             -2             142          140
 9    12         1             -7              24           17
10     1         1              3              29           32
# ℹ 22 more rows
…
